<?xml version="1.0" encoding="UTF-8"?>
<session version="1.0">
<refactoring comment="Rename type &apos;com.bookStore.api.NewApi&apos; to &apos;BookApi&apos;&#x0D;&#x0A;- Original project: &apos;bookstore&apos;&#x0D;&#x0A;- Original element: &apos;com.bookStore.api.NewApi&apos;&#x0D;&#x0A;- Renamed element: &apos;com.bookStore.api.BookApi&apos;&#x0D;&#x0A;- Update references to refactored element&#x0D;&#x0A;- Update textual occurrences in comments and strings" description="Rename type &apos;NewApi&apos;" flags="589830" id="org.eclipse.jdt.ui.rename.type" input="/src\/main\/java=/optional=/true=/=/maven.pomderived=/true=/&lt;com.bookStore.api{NewApi.java[NewApi" matchStrategy="1" name="BookApi" qualified="false" references="true" similarDeclarations="false" stamp="1617259083539" textual="false" version="1.0"/>
</session>